<svg width="32" height="32" viewBox="0 0 32 32" xmlns="http://www.w3.org/2000/svg">
    <path d="M16 0A16.004 16.004 0 0 0 0 16c0 4.243 1.686 8.313 4.686 11.314a16.004 16.004 0 0 0 22.628 0 16.004 16.004 0 0 0 0-22.628C24.312 1.686 20.243 0 16 0zm2.68 23.493c-.908 1.282-1.817 2.161-2.795 2.653a4.832 4.832 0 0 1-2.28.487c-2.068-.17-3.029-1.729-2.126-4.207l2.718-7.466c.586-1.611.018-2.102-.447-2.114-.554-.01-1.215.508-1.985 1.555v.002a.41.41 0 0 1-.67-.475c.91-1.282 1.819-2.161 2.797-2.653v.001a4.835 4.835 0 0 1 2.28-.487c2.067.17 3.028 1.729 2.125 4.207l-2.716 7.465c-.587 1.611-.018 2.101.447 2.114.554.01 1.215-.508 1.985-1.556a.41.41 0 0 1 .668.474zm2.181-15.542v.002a1.934 1.934 0 0 1-3.568.155 1.932 1.932 0 1 1 3.568-.155V7.95z" fill="none" fill-rule="evenodd"/>
</svg>
