<svg xmlns="http://www.w3.org/2000/svg" width="18" height="18" viewBox="0 0 18 18">
    <g fill="none" fill-rule="evenodd">
		<g transform="translate(-1390.000000, -52.000000) translate(0.000000, 0.000000)">
			<path fill="#292929" d="M16.615 18c.758 0 1.385-.627 1.385-1.385 0-.367-.151-.724-.4-.973l-3.71-3.71c.876-1.266 1.34-2.78 1.34-4.317C15.23 3.407 11.824 0 7.616 0S0 3.407 0 7.615s3.407 7.616 7.615 7.616c1.536 0 3.05-.465 4.316-1.342l3.71 3.7c.25.26.607.411.974.411zm-9-5.538c-2.671 0-4.846-2.175-4.846-4.847 0-2.671 2.175-4.846 4.846-4.846 2.672 0 4.847 2.175 4.847 4.846 0 2.672-2.175 4.847-4.847 4.847z" transform="translate(1390.000000, 52.000000)"/>
		</g>
    </g>
</svg>
