{
    "buttons": [
        "html",
        "format",
        "undo",
        "redo",
        "bold",
        "italic",
        "lists",
        "link",
        "file",
        "image",
        "horizontalrule"
    ],
    "plugins": ["alignment"],
    "imageResizable": true,
    "imagePosition": true,
    "dragImageUpload": false,
    "formatting": ["p", "h1", "h2", "h3", "h4"],
    "formattingAdd": {
        "leading-text": {
            "title": "Lead Text",
            "api": "module.block.format",
            "args": {
                "tag": "p",
                "class": "lead-text",
                "type": "toggle"
            }
        },
		"smaller-leading-text": {
			"title": "Smaller Lead Text",
			"api": "module.block.format",
			"args": {
				"tag": "p",
				"class": "lead-text--small",
				"type": "toggle"
			}
		}
    }
}
